…
```
## # A tibble: 74,647 x 11
##    folioviv foliohog est_dis   upm factor ing_cor sexo_jefe edad_jefe edo  
##       <dbl>    <dbl>   <dbl> <int>  <dbl>   <dbl>     <dbl>     <dbl> <chr>
##  1   1.00e8        1       2     1    175  76404.         1        74 10   
##  2   1.00e8        1       2     1    175  42988.         1        48 10   
##  3   1.00e8        1       2     1    175 580698.         1        39 10   
##  4   1.00e8        1       2     1    175  46253.         2        70 10   
##  5   1.00e8        1       2     1    175  53837.         2        51 10   
##  6   1.00e8        1       2     2    189 237743.         2        41 10   
##  7   1.00e8        1       2     2    189  32607.         2        57 10   
##  8   1.00e8        1       2     2    189 169918.         1        53 10   
##  9   1.00e8        1       2     2    189  17311.         1        30 10   
## 10   1.00e8        1       2     3    186 120488.         1        69 10   
## # … with 74,637 more rows, and 2 more variables: jefa_50 <lgl>, n <int>
```
…
```
## # A tibble: 1 x 2
##   mean_ingcor mean_ingcor_se
##         <dbl>          <dbl>
## 1      49610.           459.
```

```r
enigh_boot %>% 
    group_by(edo) %>% 
    srvyr::summarise(mean_ingcor = survey_mean(ing_cor)) 
```

```
## # A tibble: 30 x 3
##    edo   mean_ingcor mean_ingcor_se
##    <chr>       <dbl>          <dbl>
##  1 10         50161.           942.
##  2 11         46142.          1252.
##  3 12         29334.          1067.
##  4 13         38783.           933.
##  5 14         60541.          1873.
##  6 15         48013.          1245.
##  7 16         42653.          1239.
##  8 17         42973.          1675.
##  9 18         48148.          1822.
## 10 19         68959.          3625.
## # … with 20 more rows
```
…
