…
```
## # A tibble: 10,000 x 3
##    parametro estimador_boot   rep
##    <chr>              <dbl> <int>
##  1 media              0.797     1
##  2 sigma              1.90      1
##  3 media              1.23      2
##  4 sigma              1.96      2
##  5 media              1.14      3
##  6 sigma              1.89      3
##  7 media              1.33      4
##  8 sigma              1.73      4
##  9 media              1.19      5
## 10 sigma              1.73      5
## # … with 9,990 more rows
```
…
```
##       estimador
## media 0.3982829
## sigma 2.3988969
```
Hacemos bootstrap paramétrico


```r
reps_boot <- map_dfr(1:5000, ~ rep_boot(.x, crear_log_p, est_mv, n = length(muestra))) 
reps_boot
```

```
## # A tibble: 10,000 x 3
##    parametro estimador_boot   rep
##    <chr>              <dbl> <int>
##  1 media              0.789     1
##  2 sigma              0.945     1
##  3 media             -0.103     2
##  4 sigma              1.37      2
##  5 media              1.96      3
##  6 sigma              1.70      3
##  7 media              1.55      4
##  8 sigma              2.28      4
##  9 media             -0.228     5
## 10 sigma              1.73      5
## # … with 9,990 more rows
```
…
