…
```
## # A tibble: 10,000 x 2
##    parametro estimador_boot
##    <chr>              <dbl>
##  1 media              0.797
##  2 sigma              1.90 
##  3 media              1.23 
##  4 sigma              1.96 
##  5 media              1.14 
##  6 sigma              1.89 
##  7 media              1.33 
##  8 sigma              1.73 
##  9 media              1.19 
## 10 sigma              1.73 
## # … with 9,990 more rows
```
…
Hacemos *bootstrap* paramétrico


```r
reps_boot <- map_dfr(1:5000, ~ rep_boot(.x, crear_log_p, est_mle, n = length(muestra)), .id = "rep") 
reps_boot
```

```
## # A tibble: 10,000 x 3
##    rep   parametro estimador_boot
##    <chr> <chr>              <dbl>
##  1 1     media              0.789
##  2 1     sigma              0.945
##  3 2     media             -0.103
##  4 2     sigma              1.37 
##  5 3     media              1.96 
##  6 3     sigma              1.70 
##  7 4     media              1.55 
##  8 4     sigma              2.28 
##  9 5     media             -0.228
## 10 5     sigma              1.73 
## # … with 9,990 more rows
```
…
