…
* La tabla `sample_2006` en el paquete `estcomp` contiene para cada casilla:
    + el estrato al que pertenece: `stratum`
    + el número de votos que recibió cada partido/coalición: `pan`, `pri_pvem`, 
    `panal`, `prd_pt_convergencia`, `psd` y la columna `otros` indica el 
    número de votos nulos o por candidatos no registrados.
    + el total de votos registrado en la casilla: `total`.


```r
sample_2006
```

```
## # A tibble: 7,200 x 11
##    polling_id stratum edo_id rural pri_pvem   pan panal prd_pt_conv   psd otros
##         <dbl>   <dbl>  <dbl> <dbl>    <dbl> <dbl> <dbl>       <dbl> <dbl> <dbl>
##  1      74593     106     16     1       47    40     0          40     0     9
##  2     109927     194     27     0      131    10     0         147     1     8
##  3     112039     199     28     0       51    74     2          57     2     2
##  4      86392     141     20     1      145    64     2         139     1    14
##  5     101306     176     24     0       51   160     0          64    14     1
##  6      86044     140     20     1      150    20     0         166     1    11
##  7      56057      57     15     1      117   119     2          82     0    24
##  8      84186     128     19     0      118   205     8          73     9    13
##  9      27778     283      9     0       26    65     5         249     7     2
## 10      29892     289      9     0       27    32     0         338    14     7
## # … with 7,190 more rows, and 1 more variable: total <dbl>
```
…
