Sección 12 Calibración bayesiana y Regularización | EST-46111: Fundamentos de Estadística con Remuestreo
…
cobertura_wald <- calcular_cobertura(simulaciones, intervalo_wald)
cobertura_wald

## # A tibble: 66 x 5
## # Groups:   n [6]
##        n     p cobertura long_media tipo          
##    <dbl> <dbl>     <dbl>      <dbl> <chr>         
##  1     5 0.01     0.0483     0.0347 intervalo_wald
##  2     5 0.015    0.0733     0.0527 intervalo_wald
##  3     5 0.02     0.0954     0.0689 intervalo_wald
##  4     5 0.025    0.119      0.0862 intervalo_wald
##  5     5 0.03     0.140      0.102  intervalo_wald
##  6     5 0.035    0.165      0.120  intervalo_wald
##  7     5 0.04     0.187      0.137  intervalo_wald
##  8     5 0.05     0.227      0.167  intervalo_wald
##  9     5 0.07     0.299      0.223  intervalo_wald
## 10     5 0.1      0.398      0.303  intervalo_wald
## # … with 56 more rows
…
