Sección 13 Métodos de Cadenas de Markov Monte Carlo | EST-46111: Fundamentos de Estadística con Remuestreo
…
# esta no es una manera muy rápida, podríamos calcular todas las
# simulaciones de cada parámetro de manera vectorizada
sims_posterior <- tibble(rep = 1:5000) %>% 
  mutate(sims = map(rep, ~ simular_conjunta(.x, datos))) %>% 
  unnest(cols = sims)
sims_posterior

## # A tibble: 20,000 x 3
##      rep sabor     valor_sim
##    <int> <chr>         <dbl>
##  1     1 fresa         0.687
##  2     1 limón         0.813
##  3     1 mango         0.723
##  4     1 guanábana     0.614
##  5     2 fresa         0.767
##  6     2 limón         0.737
##  7     2 mango         0.705
##  8     2 guanábana     0.542
##  9     3 fresa         0.784
## 10     3 limón         0.744
## # … with 19,990 more rows
…
