Sección 5 Estimación y distribución de muestreo | EST-46111: Fundamentos de Estadística con Remuestreo
…
attr(lineup_normal, "pos")

## [1] 4

Ejemplo

Consideremos el problema de estimar el total poblacional de los precios de las casas
que se vendieron. El estimador que usamos fue la suma muestral expandida por un
factor. Vamos a checar qué tan cerca de la normalidad está la distribución de
meustreo de esta estadística (\(n=250\)):

replicaciones_2

## # A tibble: 1,500 x 4
##    id_muestra total_muestra factor_exp est_total_millones
##    <chr>              <dbl>      <dbl>              <dbl>
##  1 1                 47089.       4.58               215.
##  2 2                 45654.       4.58               209.
##  3 3                 43973.       4.58               201.
##  4 4                 45665.       4.58               209.
##  5 5                 43551.       4.58               199.
##  6 6                 46066.       4.58               211.
##  7 7                 46626.       4.58               213.
##  8 8                 47944.       4.58               219.
##  9 9                 45381.       4.58               208.
## 10 10                46519.       4.58               213.
## # … with 1,490 more rows
…
